{
 "allow_comments": 0,
 "allow_delete": 0,
 "allow_edit": 0,
 "allow_incomplete": 0,
 "allow_multiple": 0,
 "allow_print": 0,
 "anonymous": 0,
 "apply_document_permissions": 0,
 "client_script": "frappe.web_form.after_load = () => {\n\t$('select[name=\"association\"]').selectize({\n\t\tsortField: 'text'\n\t});\n\t$('input[data-fieldname=\"email\"]').keyup(function() {\n    \t$(this).val($(this).val().replace(/\\s/g, \"\"));\n\t});\n\t$('input[data-fieldname=\"email_check\"]').keyup(function() {\n\t\t$(this).val($(this).val().replace(/\\s/g, \"\"));\n\t});\n}\n",
 "condition_json": "[]",
 "creation": "2018-01-31 20:34:24.670126",
 "doc_type": "Registration Request",
 "docstatus": 0,
 "doctype": "Web Form",
 "idx": 0,
 "introduction_text": "<font color=\"#FF0000\">Si la asociacion a la que perteneces no existe en esta <a href=\"/association_list\" target=\"_blank\">lista</a>, usa <a href=\"/contact\">este formulario</a> para ponerte en contacto con nosotros.</font><br>",
 "is_standard": 1,
 "list_columns": [],
 "login_required": 0,
 "max_attachment_size": 0,
 "modified": "2024-08-04 16:58:57.402323",
 "modified_by": "Administrator",
 "module": "Avium Web",
 "name": "register-organization",
 "owner": "Administrator",
 "published": 1,
 "route": "register-organization",
 "show_attachments": 0,
 "show_list": 0,
 "show_sidebar": 0,
 "success_url": "/thank_registering",
 "title": "Register Organization",
 "web_form_fields": [
  {
   "allow_read_on_all_link_options": 0,
   "default": "Organization",
   "fieldname": "type",
   "fieldtype": "Select",
   "hidden": 1,
   "label": "Type",
   "max_length": 0,
   "max_value": 0,
   "options": "Organization",
   "read_only": 1,
   "reqd": 1,
   "show_in_filter": 0
  },
  {
   "allow_read_on_all_link_options": 0,
   "fieldname": "association",
   "fieldtype": "Link",
   "hidden": 0,
   "label": "Association",
   "max_length": 0,
   "max_value": 0,
   "options": "Association",
   "read_only": 0,
   "reqd": 1,
   "show_in_filter": 0
  },
  {
   "allow_read_on_all_link_options": 0,
   "fieldname": "",
   "fieldtype": "Section Break",
   "hidden": 0,
   "max_length": 0,
   "max_value": 0,
   "read_only": 0,
   "reqd": 0,
   "show_in_filter": 0
  },
  {
   "allow_read_on_all_link_options": 0,
   "fieldname": "registration_name",
   "fieldtype": "Data",
   "hidden": 0,
   "label": "Name",
   "max_length": 0,
   "max_value": 0,
   "read_only": 0,
   "reqd": 1,
   "show_in_filter": 0
  },
  {
   "allow_read_on_all_link_options": 0,
   "fieldname": "",
   "fieldtype": "Column Break",
   "hidden": 0,
   "max_length": 0,
   "max_value": 0,
   "read_only": 0,
   "reqd": 0,
   "show_in_filter": 0
  },
  {
   "allow_read_on_all_link_options": 0,
   "fieldname": "telephone",
   "fieldtype": "Data",
   "hidden": 0,
   "label": "Telephone",
   "max_length": 0,
   "max_value": 0,
   "read_only": 0,
   "reqd": 0,
   "show_in_filter": 0
  },
  {
   "allow_read_on_all_link_options": 0,
   "fieldname": "",
   "fieldtype": "Section Break",
   "hidden": 0,
   "label": "",
   "max_length": 0,
   "max_value": 0,
   "options": "User",
   "read_only": 0,
   "reqd": 0,
   "show_in_filter": 0
  },
  {
   "allow_read_on_all_link_options": 0,
   "fieldname": "email",
   "fieldtype": "Data",
   "hidden": 0,
   "label": "Email",
   "max_length": 0,
   "max_value": 0,
   "read_only": 0,
   "reqd": 1,
   "show_in_filter": 0
  },
  {
   "allow_read_on_all_link_options": 0,
   "fieldname": "",
   "fieldtype": "Column Break",
   "hidden": 0,
   "max_length": 0,
   "max_value": 0,
   "read_only": 0,
   "reqd": 0,
   "show_in_filter": 0
  },
  {
   "allow_read_on_all_link_options": 0,
   "fieldname": "email_check",
   "fieldtype": "Data",
   "hidden": 0,
   "label": "Email Check",
   "max_length": 0,
   "max_value": 0,
   "read_only": 0,
   "reqd": 1,
   "show_in_filter": 0
  },
  {
   "allow_read_on_all_link_options": 0,
   "fieldname": "",
   "fieldtype": "Section Break",
   "hidden": 0,
   "max_length": 0,
   "max_value": 0,
   "read_only": 0,
   "reqd": 0,
   "show_in_filter": 0
  },
  {
   "allow_read_on_all_link_options": 0,
   "default": "es",
   "fieldname": "language",
   "fieldtype": "Link",
   "hidden": 1,
   "label": "Language",
   "max_length": 0,
   "max_value": 0,
   "options": "Language",
   "read_only": 0,
   "reqd": 0,
   "show_in_filter": 0
  },
  {
   "allow_read_on_all_link_options": 0,
   "fieldname": "",
   "fieldtype": "Section Break",
   "hidden": 0,
   "max_length": 0,
   "max_value": 0,
   "read_only": 0,
   "reqd": 0,
   "show_in_filter": 0
  },
  {
   "allow_read_on_all_link_options": 0,
   "fieldtype": "HTML",
   "hidden": 0,
   "max_length": 0,
   "max_value": 0,
   "options": "AVIUM le informa que estos datos ser\u00e1n tratados de conformidad con lo dispuesto en las normativas vigentes en protecci\u00f3n de datos personales, el Reglamento (UE) 2016/679 de 27 de abril de 2016 (GDPR), la Ley Org\u00e1nica ( ES) 15/1999 de 13 de diciembre (LOPD) y el Real decreto (ES) 1720/2007 de 21 de diciembre (RDLOPD). Encontrar\u00e1 m\u00e1s informaci\u00f3n en nuestra web <a href=\"/privacy\" target=\"_blank\"> de privacidad </a>",
   "read_only": 0,
   "reqd": 0,
   "show_in_filter": 0
  },
  {
   "allow_read_on_all_link_options": 0,
   "fieldname": "accept_privacy",
   "fieldtype": "Select",
   "hidden": 0,
   "label": "Accept Privacy",
   "max_length": 0,
   "max_value": 0,
   "options": "\nI accept the privacy policy",
   "read_only": 0,
   "reqd": 1,
   "show_in_filter": 0
  }
 ]
}