{
 "allow_comments": 0,
 "allow_delete": 0,
 "allow_edit": 1,
 "allow_incomplete": 0,
 "allow_multiple": 0,
 "allow_print": 0,
 "anonymous": 0,
 "apply_document_permissions": 0,
 "condition_json": "[]",
 "creation": "2018-04-29 19:04:37.098701",
 "doc_type": "Exhibitor",
 "docstatus": 0,
 "doctype": "Web Form",
 "idx": 0,
 "introduction_text": "",
 "is_standard": 1,
 "list_columns": [],
 "login_required": 1,
 "max_attachment_size": 0,
 "modified": "2024-08-08 12:07:48.957269",
 "modified_by": "Administrator",
 "module": "Avium Web",
 "name": "exhibitor-profile",
 "owner": "Administrator",
 "published": 1,
 "route": "exhibitor_profile",
 "show_attachments": 0,
 "show_list": 0,
 "show_sidebar": 0,
 "success_url": "/exhibitor_profile",
 "title": "Exhibitor Profile",
 "web_form_fields": [
  {
   "allow_read_on_all_link_options": 0,
   "fieldname": "exhibitor_name",
   "fieldtype": "Data",
   "hidden": 0,
   "label": "Name",
   "max_length": 0,
   "max_value": 0,
   "read_only": 0,
   "reqd": 1,
   "show_in_filter": 0
  },
  {
   "allow_read_on_all_link_options": 0,
   "fieldname": "",
   "fieldtype": "Column Break",
   "hidden": 0,
   "max_length": 0,
   "max_value": 0,
   "read_only": 0,
   "reqd": 0,
   "show_in_filter": 0
  },
  {
   "allow_read_on_all_link_options": 0,
   "fieldname": "exhibitor_surname",
   "fieldtype": "Data",
   "hidden": 0,
   "label": "Surnames",
   "max_length": 0,
   "max_value": 0,
   "read_only": 0,
   "reqd": 1,
   "show_in_filter": 0
  },
  {
   "allow_read_on_all_link_options": 0,
   "fieldname": "",
   "fieldtype": "Column Break",
   "hidden": 0,
   "max_length": 0,
   "max_value": 0,
   "read_only": 0,
   "reqd": 0,
   "show_in_filter": 0
  },
  {
   "allow_read_on_all_link_options": 0,
   "fieldname": "dni",
   "fieldtype": "Data",
   "hidden": 0,
   "label": "DNI",
   "max_length": 0,
   "max_value": 0,
   "read_only": 0,
   "reqd": 0,
   "show_in_filter": 0
  },
  {
   "allow_read_on_all_link_options": 0,
   "fieldname": "",
   "fieldtype": "Section Break",
   "hidden": 0,
   "max_length": 0,
   "max_value": 0,
   "read_only": 0,
   "reqd": 0,
   "show_in_filter": 0
  },
  {
   "allow_read_on_all_link_options": 1,
   "fieldname": "association",
   "fieldtype": "Link",
   "hidden": 0,
   "label": "Association",
   "max_length": 0,
   "max_value": 0,
   "options": "Association",
   "read_only": 0,
   "reqd": 1,
   "show_in_filter": 0
  },
  {
   "allow_read_on_all_link_options": 0,
   "fieldname": "breeder_code",
   "fieldtype": "Data",
   "hidden": 0,
   "label": "Breeder Code",
   "max_length": 0,
   "max_value": 0,
   "options": "",
   "read_only": 0,
   "reqd": 1,
   "show_in_filter": 0
  },
  {
   "allow_read_on_all_link_options": 0,
   "default": "",
   "fieldname": "allow",
   "fieldtype": "Select",
   "hidden": 0,
   "label": "Allow use contact information?",
   "max_length": 0,
   "max_value": 0,
   "options": "\nNo\nYes",
   "read_only": 0,
   "reqd": 0,
   "show_in_filter": 0
  },
  {
   "allow_read_on_all_link_options": 0,
   "fieldname": "",
   "fieldtype": "Section Break",
   "hidden": 0,
   "max_length": 0,
   "max_value": 0,
   "read_only": 0,
   "reqd": 0,
   "show_in_filter": 0
  },
  {
   "allow_read_on_all_link_options": 1,
   "fieldname": "territory",
   "fieldtype": "Link",
   "hidden": 0,
   "label": "Territory",
   "max_length": 0,
   "max_value": 0,
   "options": "Territory",
   "read_only": 0,
   "reqd": 0,
   "show_in_filter": 0
  },
  {
   "allow_read_on_all_link_options": 0,
   "fieldname": "city",
   "fieldtype": "Data",
   "hidden": 0,
   "label": "City",
   "max_length": 0,
   "max_value": 0,
   "read_only": 0,
   "reqd": 0,
   "show_in_filter": 0
  },
  {
   "allow_read_on_all_link_options": 0,
   "fieldname": "telephone",
   "fieldtype": "Data",
   "hidden": 0,
   "label": "Telephone",
   "max_length": 0,
   "max_value": 0,
   "read_only": 0,
   "reqd": 0,
   "show_in_filter": 0
  },
  {
   "allow_read_on_all_link_options": 0,
   "fieldname": "",
   "fieldtype": "Column Break",
   "hidden": 0,
   "max_length": 0,
   "max_value": 0,
   "read_only": 0,
   "reqd": 0,
   "show_in_filter": 0
  },
  {
   "allow_read_on_all_link_options": 0,
   "fieldname": "postal_code",
   "fieldtype": "Data",
   "hidden": 0,
   "label": "Postal Code",
   "max_length": 0,
   "max_value": 0,
   "read_only": 0,
   "reqd": 0,
   "show_in_filter": 0
  },
  {
   "allow_read_on_all_link_options": 0,
   "fieldname": "address",
   "fieldtype": "Data",
   "hidden": 0,
   "label": "Address",
   "max_length": 0,
   "max_value": 0,
   "read_only": 0,
   "reqd": 0,
   "show_in_filter": 0
  },
  {
   "allow_read_on_all_link_options": 0,
   "fieldname": "mobile_phone",
   "fieldtype": "Data",
   "hidden": 0,
   "label": "Mobile Phone",
   "max_length": 0,
   "max_value": 0,
   "read_only": 0,
   "reqd": 0,
   "show_in_filter": 0
  }
 ]
}