{
 "actions": [],
 "allow_guest_to_view": 1,
 "allow_rename": 1,
 "creation": "2017-12-18 20:19:16.645394",
 "doctype": "DocType",
 "editable_grid": 1,
 "engine": "InnoDB",
 "field_order": [
  "tournament_name",
  "tournament_subdomain",
  "tournament_url",
  "view_tournament_website",
  "section_break_3",
  "association",
  "column_break_5",
  "web_information",
  "information",
  "section_break_11",
  "published",
  "column_break_13",
  "route",
  "data_16",
  "section_break_16",
  "info_files",
  "section_break_19",
  "files",
  "get_files",
  "web_creation",
  "create_website",
  "install_apps",
  "configure_ssl",
  "check_website_up",
  "create_migration",
  "run_migration",
  "setup_wizard_button",
  "setup_oauth_button",
  "setup_public_files_button",
  "setup_backup_button",
  "setup_email_button",
  "column_break_17",
  "site_created",
  "apps_installation",
  "ssl_certificate",
  "website_up",
  "migration_created",
  "data_imported",
  "setup_wizard",
  "setup_oauth",
  "setup_public_files",
  "setup_backup",
  "setup_email",
  "column_break_44",
  "start_website_creation",
  "create_website_status",
  "column_break_19",
  "start_website_creation_docker",
  "create_in_docker",
  "logs",
  "statistics",
  "last_collected",
  "individual_groups",
  "team_groups",
  "registrations",
  "individual_specimens",
  "team_specimens",
  "total_templates",
  "pending_templates",
  "judged_templates",
  "tied_templates",
  "error_templates",
  "closed_templates"
 ],
 "fields": [
  {
   "fieldname": "tournament_name",
   "fieldtype": "Data",
   "in_list_view": 1,
   "label": "Tournament Name",
   "reqd": 1
  },
  {
   "fieldname": "tournament_subdomain",
   "fieldtype": "Data",
   "label": "Tournament Subdomain",
   "unique": 1
  },
  {
   "fieldname": "tournament_url",
   "fieldtype": "Data",
   "label": "Tournament URL"
  },
  {
   "depends_on": "eval:doc.tournament_url",
   "fieldname": "view_tournament_website",
   "fieldtype": "Button",
   "label": "View Tournament Website"
  },
  {
   "collapsible": 1,
   "fieldname": "section_break_3",
   "fieldtype": "Section Break",
   "label": "Tournament Configuration"
  },
  {
   "fieldname": "association",
   "fieldtype": "Link",
   "in_list_view": 1,
   "label": "Association",
   "options": "Association",
   "reqd": 1,
   "set_only_once": 1
  },
  {
   "fieldname": "column_break_5",
   "fieldtype": "Column Break"
  },
  {
   "collapsible": 1,
   "fieldname": "web_information",
   "fieldtype": "Section Break",
   "label": "Web Information"
  },
  {
   "fieldname": "information",
   "fieldtype": "Text Editor",
   "label": "Information"
  },
  {
   "collapsible": 1,
   "fieldname": "section_break_11",
   "fieldtype": "Section Break",
   "label": "Web View",
   "permlevel": 1
  },
  {
   "default": "0",
   "fieldname": "published",
   "fieldtype": "Check",
   "label": "Published"
  },
  {
   "fieldname": "column_break_13",
   "fieldtype": "Column Break"
  },
  {
   "fieldname": "route",
   "fieldtype": "Data",
   "label": "Route"
  },
  {
   "fieldname": "data_16",
   "fieldtype": "Data"
  },
  {
   "fieldname": "section_break_16",
   "fieldtype": "Section Break",
   "label": "Info Files"
  },
  {
   "fieldname": "info_files",
   "fieldtype": "Table",
   "label": "Info Files",
   "options": "Tournament File"
  },
  {
   "fieldname": "section_break_19",
   "fieldtype": "Section Break",
   "label": "Tournament Files"
  },
  {
   "fieldname": "files",
   "fieldtype": "Table",
   "label": "Files",
   "options": "Tournament File"
  },
  {
   "fieldname": "get_files",
   "fieldtype": "Button",
   "label": "Get Files",
   "options": "get_files"
  },
  {
   "fieldname": "web_creation",
   "fieldtype": "Section Break",
   "hidden": 1,
   "label": "Web Creation"
  },
  {
   "fieldname": "create_website",
   "fieldtype": "Button",
   "label": "Create Website",
   "options": "create_website"
  },
  {
   "fieldname": "install_apps",
   "fieldtype": "Button",
   "label": "Install Apps",
   "options": "install_apps"
  },
  {
   "fieldname": "configure_ssl",
   "fieldtype": "Button",
   "label": "Configure SSL",
   "options": "configure_ssl"
  },
  {
   "fieldname": "check_website_up",
   "fieldtype": "Button",
   "label": "Check Website UP",
   "options": "check_website_up"
  },
  {
   "fieldname": "create_migration",
   "fieldtype": "Button",
   "label": "Create Migration",
   "options": "create_migration"
  },
  {
   "fieldname": "run_migration",
   "fieldtype": "Button",
   "label": "Run Migration",
   "options": "run_migration"
  },
  {
   "fieldname": "setup_wizard_button",
   "fieldtype": "Button",
   "label": "Setup Wizard",
   "options": "setup_wizard_fn"
  },
  {
   "fieldname": "setup_oauth_button",
   "fieldtype": "Button",
   "label": "Setup Oauth",
   "options": "setup_oauth_fn"
  },
  {
   "fieldname": "setup_public_files_button",
   "fieldtype": "Button",
   "label": "Setup Public Files",
   "options": "setup_publicfiles_fn"
  },
  {
   "fieldname": "setup_backup_button",
   "fieldtype": "Button",
   "label": "Setup Backup",
   "options": "setup_backup_fn"
  },
  {
   "fieldname": "setup_email_button",
   "fieldtype": "Button",
   "label": "Setup Email",
   "options": "setup_email_fn"
  },
  {
   "fieldname": "column_break_17",
   "fieldtype": "Column Break"
  },
  {
   "default": "0",
   "fieldname": "site_created",
   "fieldtype": "Check",
   "label": "Site Created",
   "read_only": 1
  },
  {
   "default": "0",
   "fieldname": "apps_installation",
   "fieldtype": "Check",
   "label": "Apps Installation",
   "read_only": 1
  },
  {
   "default": "0",
   "fieldname": "ssl_certificate",
   "fieldtype": "Check",
   "label": "SSL Certificate",
   "read_only": 1
  },
  {
   "default": "0",
   "fieldname": "website_up",
   "fieldtype": "Check",
   "label": "Website UP",
   "read_only": 1
  },
  {
   "default": "0",
   "fieldname": "migration_created",
   "fieldtype": "Check",
   "label": "Migration Created",
   "read_only": 1
  },
  {
   "default": "0",
   "fieldname": "data_imported",
   "fieldtype": "Check",
   "label": "Data Imported",
   "read_only": 1
  },
  {
   "default": "0",
   "fieldname": "setup_wizard",
   "fieldtype": "Check",
   "label": "Setup Wizard",
   "read_only": 1
  },
  {
   "default": "0",
   "fieldname": "setup_oauth",
   "fieldtype": "Check",
   "label": "Setup Oauth",
   "read_only": 1
  },
  {
   "default": "0",
   "fieldname": "setup_public_files",
   "fieldtype": "Check",
   "label": "Setup Public Files",
   "read_only": 1
  },
  {
   "default": "0",
   "fieldname": "setup_backup",
   "fieldtype": "Check",
   "label": "Setup Backup",
   "read_only": 1
  },
  {
   "default": "0",
   "fieldname": "setup_email",
   "fieldtype": "Check",
   "label": "Setup Email",
   "read_only": 1
  },
  {
   "fieldname": "column_break_19",
   "fieldtype": "Section Break",
   "label": "Website Creation"
  },
  {
   "fieldname": "start_website_creation",
   "fieldtype": "Button",
   "label": "Start Website Creation",
   "options": "start_website_creation"
  },
  {
   "fieldname": "create_website_status",
   "fieldtype": "Data",
   "label": "Create Website Status"
  },
  {
   "fieldname": "logs",
   "fieldtype": "Text Editor",
   "label": "Logs",
   "read_only": 1
  },
  {
   "collapsible": 1,
   "fieldname": "statistics",
   "fieldtype": "Section Break",
   "label": "Statistics"
  },
  {
   "fieldname": "last_collected",
   "fieldtype": "Datetime",
   "label": "Last Collected"
  },
  {
   "fieldname": "individual_groups",
   "fieldtype": "Int",
   "label": "Individual Groups"
  },
  {
   "fieldname": "team_groups",
   "fieldtype": "Int",
   "label": "Team Groups"
  },
  {
   "fieldname": "registrations",
   "fieldtype": "Int",
   "label": "Registrations"
  },
  {
   "fieldname": "individual_specimens",
   "fieldtype": "Int",
   "label": "Individual Specimens"
  },
  {
   "fieldname": "team_specimens",
   "fieldtype": "Int",
   "label": "Team Specimens"
  },
  {
   "fieldname": "total_templates",
   "fieldtype": "Int",
   "label": "Total Templates"
  },
  {
   "fieldname": "pending_templates",
   "fieldtype": "Int",
   "label": "Pending Templates"
  },
  {
   "fieldname": "judged_templates",
   "fieldtype": "Int",
   "label": "Judged Templates"
  },
  {
   "fieldname": "tied_templates",
   "fieldtype": "Int",
   "label": "Tied Templates"
  },
  {
   "fieldname": "error_templates",
   "fieldtype": "Int",
   "label": "Error Templates"
  },
  {
   "fieldname": "closed_templates",
   "fieldtype": "Int",
   "label": "Closed Templates"
  },
  {
   "fieldname": "start_website_creation_docker",
   "fieldtype": "Button",
   "label": "Start Website Creation Docker",
   "options": "start_website_creation_docker"
  },
  {
   "default": "1",
   "fieldname": "create_in_docker",
   "fieldtype": "Check",
   "label": "Create in Docker"
  },
  {
   "fieldname": "column_break_44",
   "fieldtype": "Column Break"
  }
 ],
 "has_web_view": 1,
 "is_published_field": "published",
 "links": [],
 "make_attachments_public": 1,
 "modified": "2024-08-29 12:21:28.272737",
 "modified_by": "Administrator",
 "module": "Avium Web",
 "name": "Tournament",
 "name_case": "UPPER CASE",
 "owner": "Administrator",
 "permissions": [
  {
   "create": 1,
   "delete": 1,
   "email": 1,
   "export": 1,
   "print": 1,
   "read": 1,
   "report": 1,
   "role": "System Manager",
   "share": 1,
   "write": 1
  },
  {
   "create": 1,
   "delete": 1,
   "email": 1,
   "export": 1,
   "print": 1,
   "read": 1,
   "report": 1,
   "role": "Administrator",
   "share": 1,
   "write": 1
  },
  {
   "delete": 1,
   "email": 1,
   "export": 1,
   "permlevel": 1,
   "print": 1,
   "read": 1,
   "report": 1,
   "role": "Administrator",
   "share": 1,
   "write": 1
  }
 ],
 "route": "tournament",
 "show_name_in_global_search": 1,
 "sort_field": "modified",
 "sort_order": "DESC",
 "states": [],
 "title_field": "tournament_name",
 "track_changes": 1
}