{
 "actions": [],
 "creation": "2018-03-09 16:18:46.903606",
 "doctype": "DocType",
 "editable_grid": 1,
 "engine": "InnoDB",
 "field_order": [
  "avium_domain",
  "avium_manager",
  "url",
  "username",
  "password",
  "admin_password",
  "mysql_password",
  "data_mapping_connector",
  "dm_url",
  "dm_user",
  "dm_pass",
  "setup_wizard",
  "wizard_username",
  "wizard_password",
  "oauth",
  "oauth_server",
  "s3_backup_settings",
  "notify_email",
  "frequency",
  "access_key_id",
  "secret_access_key",
  "endpoint_url",
  "backup_limit",
  "public_files",
  "public_files_url",
  "email_configuration",
  "email_domain",
  "email_from",
  "imap_server",
  "imap_port",
  "smtp_server",
  "smtp_port",
  "email_user",
  "email_password",
  "docker_settings",
  "docker_api_endpoint",
  "docker_auth",
  "add_domains",
  "stack_name",
  "stack_id",
  "endpoint_id",
  "column_break_40",
  "docker_db_root_user",
  "docker_admin_password",
  "docker_mysql_root_password",
  "docker_avium_url",
  "docker_avium_connector_user",
  "docker_avium_connector_pass"
 ],
 "fields": [
  {
   "fieldname": "avium_domain",
   "fieldtype": "Data",
   "label": "AVIUM Domain"
  },
  {
   "collapsible": 1,
   "fieldname": "avium_manager",
   "fieldtype": "Section Break",
   "label": "AVIUM Manager"
  },
  {
   "fieldname": "url",
   "fieldtype": "Data",
   "label": "URL"
  },
  {
   "fieldname": "username",
   "fieldtype": "Data",
   "label": "Username"
  },
  {
   "fieldname": "password",
   "fieldtype": "Data",
   "label": "Password"
  },
  {
   "fieldname": "admin_password",
   "fieldtype": "Data",
   "label": "Admin Password"
  },
  {
   "fieldname": "mysql_password",
   "fieldtype": "Data",
   "label": "MySQL Password"
  },
  {
   "collapsible": 1,
   "fieldname": "data_mapping_connector",
   "fieldtype": "Section Break",
   "label": "Data Mapping Connector"
  },
  {
   "fieldname": "dm_url",
   "fieldtype": "Data",
   "label": "URL"
  },
  {
   "fieldname": "dm_user",
   "fieldtype": "Data",
   "label": "Username"
  },
  {
   "fieldname": "dm_pass",
   "fieldtype": "Data",
   "label": "Password"
  },
  {
   "collapsible": 1,
   "fieldname": "setup_wizard",
   "fieldtype": "Section Break",
   "label": "Setup Wizard"
  },
  {
   "fieldname": "wizard_username",
   "fieldtype": "Data",
   "label": "Wizard Username"
  },
  {
   "fieldname": "wizard_password",
   "fieldtype": "Data",
   "label": "Wizard Password"
  },
  {
   "collapsible": 1,
   "fieldname": "oauth",
   "fieldtype": "Section Break",
   "label": "OAuth"
  },
  {
   "fieldname": "oauth_server",
   "fieldtype": "Data",
   "label": "OAuth Server"
  },
  {
   "collapsible": 1,
   "fieldname": "s3_backup_settings",
   "fieldtype": "Section Break",
   "label": "S3 Backup Settings"
  },
  {
   "fieldname": "notify_email",
   "fieldtype": "Data",
   "in_list_view": 1,
   "label": "Send Notifications To"
  },
  {
   "fieldname": "frequency",
   "fieldtype": "Select",
   "in_list_view": 1,
   "label": "Backup Frequency",
   "options": "Daily\nWeekly\nMonthly\nNone"
  },
  {
   "fieldname": "access_key_id",
   "fieldtype": "Data",
   "in_list_view": 1,
   "label": "Access Key ID"
  },
  {
   "fieldname": "secret_access_key",
   "fieldtype": "Data",
   "in_list_view": 1,
   "label": "Secret Access Key"
  },
  {
   "fieldname": "endpoint_url",
   "fieldtype": "Data",
   "label": "Endpoint URL"
  },
  {
   "fieldname": "backup_limit",
   "fieldtype": "Int",
   "label": "Backup Limit"
  },
  {
   "collapsible": 1,
   "fieldname": "public_files",
   "fieldtype": "Section Break",
   "label": "Public Files"
  },
  {
   "fieldname": "public_files_url",
   "fieldtype": "Link",
   "label": "Public Files Url",
   "options": "File"
  },
  {
   "collapsible": 1,
   "fieldname": "email_configuration",
   "fieldtype": "Section Break",
   "label": "Email Configuration"
  },
  {
   "fieldname": "email_domain",
   "fieldtype": "Data",
   "label": "Email Domain"
  },
  {
   "fieldname": "email_from",
   "fieldtype": "Data",
   "label": "Email From"
  },
  {
   "fieldname": "imap_server",
   "fieldtype": "Data",
   "label": "IMAP Server"
  },
  {
   "fieldname": "imap_port",
   "fieldtype": "Int",
   "label": "IMAP Port"
  },
  {
   "fieldname": "smtp_server",
   "fieldtype": "Data",
   "label": "SMTP Server"
  },
  {
   "fieldname": "smtp_port",
   "fieldtype": "Int",
   "label": "SMTP Port"
  },
  {
   "fieldname": "email_user",
   "fieldtype": "Data",
   "label": "Email User"
  },
  {
   "fieldname": "email_password",
   "fieldtype": "Data",
   "label": "Email Password"
  },
  {
   "fieldname": "docker_auth",
   "fieldtype": "Data",
   "label": "Docker Auth"
  },
  {
   "fieldname": "docker_db_root_user",
   "fieldtype": "Data",
   "label": "Docker DB_ROOT_USER"
  },
  {
   "fieldname": "docker_mysql_root_password",
   "fieldtype": "Data",
   "label": "Docker MYSQL_ROOT_PASSWORD"
  },
  {
   "fieldname": "docker_admin_password",
   "fieldtype": "Data",
   "label": "Docker ADMIN_PASSWORD"
  },
  {
   "fieldname": "docker_api_endpoint",
   "fieldtype": "Data",
   "label": "Docker API Endpoint"
  },
  {
   "fieldname": "stack_id",
   "fieldtype": "Data",
   "label": "Stack Id"
  },
  {
   "fieldname": "stack_name",
   "fieldtype": "Data",
   "label": "Stack Name"
  },
  {
   "fieldname": "docker_settings",
   "fieldtype": "Section Break",
   "label": "Docker Settings"
  },
  {
   "fieldname": "column_break_40",
   "fieldtype": "Column Break"
  },
  {
   "fieldname": "add_domains",
   "fieldtype": "Data",
   "label": "Add Domains"
  },
  {
   "fieldname": "docker_avium_url",
   "fieldtype": "Data",
   "label": "Docker AVIUM_URL"
  },
  {
   "fieldname": "docker_avium_connector_pass",
   "fieldtype": "Data",
   "label": "Docker AVIUM_CONNECTOR_PASS"
  },
  {
   "fieldname": "docker_avium_connector_user",
   "fieldtype": "Data",
   "label": "Docker AVIUM_CONNECTOR_USER"
  },
  {
   "fieldname": "endpoint_id",
   "fieldtype": "Data",
   "label": "Endpoint Id"
  }
 ],
 "issingle": 1,
 "links": [],
 "modified": "2022-02-07 10:07:27.798559",
 "modified_by": "Administrator",
 "module": "Website Creation",
 "name": "Website Creation Settings",
 "owner": "Administrator",
 "permissions": [
  {
   "create": 1,
   "delete": 1,
   "email": 1,
   "print": 1,
   "read": 1,
   "role": "System Manager",
   "share": 1,
   "write": 1
  }
 ],
 "sort_field": "modified",
 "sort_order": "DESC"
}