{
 "actions": [],
 "allow_import": 1,
 "allow_rename": 1,
 "creation": "2017-04-26 18:44:29.108749",
 "doctype": "DocType",
 "editable_grid": 1,
 "engine": "InnoDB",
 "field_order": [
  "federation",
  "family_name",
  "printing_order",
  "sing_family",
  "manual_harmony",
  "manual_trophy",
  "column_break_2",
  "code",
  "cage",
  "age_allowed"
 ],
 "fields": [
  {
   "fieldname": "federation",
   "fieldtype": "Link",
   "label": "Federation",
   "options": "Federation",
   "reqd": 1
  },
  {
   "fieldname": "family_name",
   "fieldtype": "Data",
   "in_list_view": 1,
   "in_standard_filter": 1,
   "label": "Family Name",
   "reqd": 1
  },
  {
   "fieldname": "printing_order",
   "fieldtype": "Int",
   "label": "Printing Order",
   "reqd": 1
  },
  {
   "default": "0",
   "fieldname": "sing_family",
   "fieldtype": "Check",
   "label": "Sing Family"
  },
  {
   "default": "0",
   "fieldname": "manual_harmony",
   "fieldtype": "Check",
   "label": "Manual Harmony"
  },
  {
   "default": "0",
   "fieldname": "manual_trophy",
   "fieldtype": "Check",
   "label": "Manual Trophy"
  },
  {
   "fieldname": "column_break_2",
   "fieldtype": "Column Break"
  },
  {
   "fieldname": "code",
   "fieldtype": "Data",
   "label": "Code",
   "reqd": 1
  },
  {
   "fieldname": "cage",
   "fieldtype": "Link",
   "in_list_view": 1,
   "label": "Cage",
   "options": "Cage"
  },
  {
   "default": "3",
   "fieldname": "age_allowed",
   "fieldtype": "Int",
   "label": "Age Allowed"
  }
 ],
 "links": [],
 "modified": "2024-11-12 22:20:26.026603",
 "modified_by": "Administrator",
 "module": "Avium Tournament Web",
 "name": "Family",
 "owner": "Administrator",
 "permissions": [
  {
   "create": 1,
   "delete": 1,
   "email": 1,
   "export": 1,
   "import": 1,
   "print": 1,
   "read": 1,
   "report": 1,
   "role": "System Manager",
   "share": 1,
   "write": 1
  },
  {
   "email": 1,
   "export": 1,
   "print": 1,
   "read": 1,
   "report": 1,
   "role": "All",
   "share": 1
  }
 ],
 "search_fields": "family_name",
 "sort_field": "modified",
 "sort_order": "DESC",
 "states": [],
 "title_field": "code",
 "track_changes": 1
}